tests/inter.vcd
$date
	Sat May 24 16:36:23 2025
$end
$version
	Icarus Verilog
$end
$timescale
	1ps
$end
$scope module dut_test $end
$var wire 1 ! RST_N $end
$var wire 3 " read_address [2:0] $end
$var wire 1 # read_en $end
$var wire 1 $ read_rdy $end
$var wire 3 % write_address [2:0] $end
$var wire 1 & write_data $end
$var wire 1 ' write_en $end
$var wire 1 ( write_rdy $end
$var wire 1 ) read_data $end
$var reg 1 * CLK $end
$scope module dut_testx $end
$var wire 1 * CLK $end
$var wire 1 ! RST_N $end
$var wire 1 + \a_data$whas $end
$var wire 1 , \a_ff$CLR $end
$var wire 1 - \a_ff$DEQ $end
$var wire 1 . \a_ff$D_IN $end
$var wire 1 / \a_ff$ENQ $end
$var wire 1 0 \b_data$whas $end
$var wire 1 1 \b_ff$CLR $end
$var wire 1 2 \b_ff$DEQ $end
$var wire 1 3 \b_ff$D_IN $end
$var wire 1 4 \b_ff$ENQ $end
$var wire 1 5 \pwyff_deq$whas $end
$var wire 3 6 read_address [2:0] $end
$var wire 1 # read_en $end
$var wire 1 $ read_rdy $end
$var wire 3 7 write_address [2:0] $end
$var wire 1 & write_data $end
$var wire 1 ' write_en $end
$var wire 1 ( write_rdy $end
$var wire 1 8 \y_ff$CLR $end
$var wire 1 9 \y_ff$DEQ $end
$var wire 1 : \y_ff$D_IN $end
$var wire 1 ; \y_ff$ENQ $end
$var wire 1 < \y_ff$FULL_N $end
$var wire 1 = \y_ff$EMPTY_N $end
$var wire 1 > \y_ff$D_OUT $end
$var wire 1 ? \b_ff$FULL_N $end
$var wire 1 @ \b_ff$EMPTY_N $end
$var wire 1 A \b_ff$D_OUT $end
$var wire 1 B \a_ff$FULL_N $end
$var wire 1 C \a_ff$EMPTY_N $end
$var wire 1 D \a_ff$D_OUT $end
$var reg 1 ) read_data $end
$scope module a_ff $end
$var wire 1 * CLK $end
$var wire 1 , CLR $end
$var wire 1 - DEQ $end
$var wire 1 . D_IN $end
$var wire 1 C EMPTY_N $end
$var wire 1 / ENQ $end
$var wire 1 B FULL_N $end
$var wire 1 ! RST $end
$var wire 1 E d0d1 $end
$var wire 1 F d0di $end
$var wire 1 G d0h $end
$var wire 1 H d1di $end
$var wire 1 D D_OUT $end
$var parameter 1 I guarded $end
$var parameter 32 J width $end
$var reg 1 D data0_reg $end
$var reg 1 K data1_reg $end
$var reg 1 L empty_reg $end
$var reg 1 M full_reg $end
$scope begin error_checks $end
$var reg 1 N deqerror $end
$var reg 1 O enqerror $end
$upscope $end
$upscope $end
$scope module b_ff $end
$var wire 1 * CLK $end
$var wire 1 1 CLR $end
$var wire 1 2 DEQ $end
$var wire 1 3 D_IN $end
$var wire 1 @ EMPTY_N $end
$var wire 1 4 ENQ $end
$var wire 1 ! RST $end
$var wire 1 ? FULL_N $end
$var parameter 1 P guarded $end
$var parameter 32 Q width $end
$var reg 1 A D_OUT $end
$var reg 1 R empty_reg $end
$scope begin error_checks $end
$var reg 1 S deqerror $end
$var reg 1 T enqerror $end
$upscope $end
$upscope $end
$scope module y_ff $end
$var wire 1 * CLK $end
$var wire 1 8 CLR $end
$var wire 1 9 DEQ $end
$var wire 1 : D_IN $end
$var wire 1 > D_OUT $end
$var wire 1 = EMPTY_N $end
$var wire 1 ; ENQ $end
$var wire 1 < FULL_N $end
$var wire 1 ! RST $end
$var wire 1 U d0d1 $end
$var wire 1 V d0di $end
$var wire 1 W d0h $end
$var wire 1 X d1di $end
$var parameter 1 Y guarded $end
$var parameter 32 Z width $end
$var reg 1 [ data0_reg $end
$var reg 1 \ data1_reg $end
$var reg 1 ] empty_reg $end
$var reg 1 ^ full_reg $end
$scope begin error_checks $end
$var reg 1 _ deqerror $end
$var reg 1 ` enqerror $end
$upscope $end
$upscope $end
$upscope $end
$upscope $end
$enddefinitions $end
$comment Show the parameter values. $end
$dumpall
b1 Z
1Y
b1 Q
1P
b1 J
1I
$end
#0
$dumpvars
x`
x_
1^
0]
0\
0[
0X
1W
0V
0U
xT
xS
0R
xO
xN
1M
0L
0K
0H
xG
xF
0E
0D
0C
1B
0A
0@
1?
0>
0=
1<
0;
0:
09
08
bz 7
bz 6
x5
x4
z3
02
01
x0
x/
z.
0-
0,
x+
0*
0)
1(
z'
z&
bz %
1$
z#
bz "
1!
$end
#1000
0!
#5000
0F
1G
0/
04
0+
00
b100 %
b100 7
0.
03
0&
1#
0'
1!
x:
xD
0`
0_
0T
0S
0O
0N
1*
#10000
0*
#15000
05
0#
1*
#20000
1)
b0 "
b0 6
1#
0*
#25000
0#
1*
#30000
b101 %
b101 7
1.
13
1&
1#
0*
#35000
0#
1*
#40000
1#
0*
#45000
0#
1*
#50000
0.
03
0&
1#
0*
#55000
0#
1*
#60000
b1 "
b1 6
1#
0*
#65000
0#
1*
#70000
b100 %
b100 7
1#
0*
#75000
0#
1*
#80000
0)
15
b11 "
b11 6
1#
0*
#85000
05
0#
1*
#90000
15
b101 %
b101 7
1#
0*
#95000
05
0#
1*
#100000
1)
b0 "
b0 6
1#
0*
#105000
0#
1*
#110000
1.
13
1&
1#
0*
#115000
0#
1*
#120000
1#
0*
#125000
0#
1*
#130000
b100 %
b100 7
1#
0*
#135000
0#
1*
#140000
0)
15
b11 "
b11 6
1#
0*
#145000
05
0#
1*
#150000
15
0.
03
0&
1#
0*
#155000
05
0#
1*
#160000
1)
b0 "
b0 6
1#
0*
#165000
0#
1*
#170000
b101 %
b101 7
1#
0*
#175000
0#
1*
#180000
0)
15
b11 "
b11 6
1#
0*
#185000
05
0#
1*
#190000
15
1.
13
1&
1#
0*
#195000
05
0#
1*
#200000
1)
b0 "
b0 6
1#
0*
#205000
0#
1*
#210000
b100 %
b100 7
0.
03
0&
1#
0*
#215000
0#
1*
#220000
0)
15
b11 "
b11 6
1#
0*
#225000
05
0#
1*
#230000
15
1.
13
1&
1#
0*
#235000
05
0#
1*
#240000
1)
b1 "
b1 6
1#
0*
#245000
0#
1*
#250000
b101 %
b101 7
1#
0*
#255000
0#
1*
#260000
0)
15
b11 "
b11 6
1#
0*
#265000
05
0#
1*
#270000
15
1#
0*
#275000
05
0#
1*
#280000
1)
b1 "
b1 6
1#
0*
#285000
0#
1*
#290000
0.
03
0&
1#
0*
#295000
0#
1*
#300000
0)
15
b11 "
b11 6
1#
0*
#305000
05
0#
1*
#310000
15
b100 %
b100 7
1#
0*
#315000
05
0#
1*
#320000
1)
b1 "
b1 6
1#
0*
#325000
0#
1*
#330000
1#
0*
#335000
0#
1*
#340000
b0 "
b0 6
1#
0*
#345000
0#
1*
#350000
b101 %
b101 7
1#
0*
#355000
0#
1*
#360000
1#
0*
#365000
0#
1*
#370000
1.
13
1&
1#
0*
#375000
0#
1*
#380000
b1 "
b1 6
1#
0*
#385000
0#
1*
#390000
b100 %
b100 7
0.
03
0&
1#
0*
#395000
0#
1*
#400000
1#
0*
#405000
0#
1*
#410000
b101 %
b101 7
1#
0*
#415000
0#
1*
#420000
b0 "
b0 6
1#
0*
#425000
0#
1*
#430000
b100 %
b100 7
1#
0*
#435000
0#
1*
#440000
1#
0*
#445000
0#
1*
#450000
1.
13
1&
1#
0*
#455000
0#
1*
#460000
1#
0*
#465000
0#
1*
#470000
b101 %
b101 7
1#
0*
#475000
0#
1*
#480000
b1 "
b1 6
1#
0*
#485000
0#
1*
#490000
1#
0*
#495000
0#
1*
#500000
0)
15
b11 "
b11 6
1#
0*
