tests/inter.vcd
$date
	Sat Jun  7 07:54:14 2025
$end
$version
	Icarus Verilog
$end
$timescale
	1ps
$end
$scope module dut_test $end
$var wire 1 ! RST_N $end
$var wire 3 " read_address [2:0] $end
$var wire 1 # read_en $end
$var wire 1 $ read_rdy $end
$var wire 3 % write_address [2:0] $end
$var wire 1 & write_data $end
$var wire 1 ' write_en $end
$var wire 1 ( write_rdy $end
$var wire 1 ) read_data $end
$var reg 1 * CLK $end
$scope module dut_testx $end
$var wire 1 * CLK $end
$var wire 1 ! RST_N $end
$var wire 1 + \a_data$whas $end
$var wire 1 , \a_ff$CLR $end
$var wire 1 - \a_ff$DEQ $end
$var wire 1 . \a_ff$D_IN $end
$var wire 1 / \a_ff$ENQ $end
$var wire 1 0 \b_data$whas $end
$var wire 1 1 \b_ff$CLR $end
$var wire 1 2 \b_ff$DEQ $end
$var wire 1 3 \b_ff$D_IN $end
$var wire 1 4 \b_ff$ENQ $end
$var wire 1 5 \pwyff_deq$whas $end
$var wire 3 6 read_address [2:0] $end
$var wire 1 # read_en $end
$var wire 1 $ read_rdy $end
$var wire 3 7 write_address [2:0] $end
$var wire 1 & write_data $end
$var wire 1 ' write_en $end
$var wire 1 ( write_rdy $end
$var wire 1 8 \y_ff$CLR $end
$var wire 1 9 \y_ff$DEQ $end
$var wire 1 : \y_ff$D_IN $end
$var wire 1 ; \y_ff$ENQ $end
$var wire 1 < \y_ff$FULL_N $end
$var wire 1 = \y_ff$EMPTY_N $end
$var wire 1 > \y_ff$D_OUT $end
$var wire 1 ? \b_ff$FULL_N $end
$var wire 1 @ \b_ff$EMPTY_N $end
$var wire 1 A \b_ff$D_OUT $end
$var wire 1 B \a_ff$FULL_N $end
$var wire 1 C \a_ff$EMPTY_N $end
$var wire 1 D \a_ff$D_OUT $end
$var reg 1 ) read_data $end
$scope module a_ff $end
$var wire 1 * CLK $end
$var wire 1 , CLR $end
$var wire 1 - DEQ $end
$var wire 1 . D_IN $end
$var wire 1 C EMPTY_N $end
$var wire 1 / ENQ $end
$var wire 1 B FULL_N $end
$var wire 1 ! RST $end
$var wire 1 E d0d1 $end
$var wire 1 F d0di $end
$var wire 1 G d0h $end
$var wire 1 H d1di $end
$var wire 1 D D_OUT $end
$var parameter 1 I guarded $end
$var parameter 32 J width $end
$var reg 1 D data0_reg $end
$var reg 1 K data1_reg $end
$var reg 1 L empty_reg $end
$var reg 1 M full_reg $end
$scope begin error_checks $end
$var reg 1 N deqerror $end
$var reg 1 O enqerror $end
$upscope $end
$upscope $end
$scope module b_ff $end
$var wire 1 * CLK $end
$var wire 1 1 CLR $end
$var wire 1 2 DEQ $end
$var wire 1 3 D_IN $end
$var wire 1 @ EMPTY_N $end
$var wire 1 4 ENQ $end
$var wire 1 ! RST $end
$var wire 1 ? FULL_N $end
$var parameter 1 P guarded $end
$var parameter 32 Q width $end
$var reg 1 A D_OUT $end
$var reg 1 R empty_reg $end
$scope begin error_checks $end
$var reg 1 S deqerror $end
$var reg 1 T enqerror $end
$upscope $end
$upscope $end
$scope module y_ff $end
$var wire 1 * CLK $end
$var wire 1 8 CLR $end
$var wire 1 9 DEQ $end
$var wire 1 : D_IN $end
$var wire 1 > D_OUT $end
$var wire 1 = EMPTY_N $end
$var wire 1 ; ENQ $end
$var wire 1 < FULL_N $end
$var wire 1 ! RST $end
$var wire 1 U d0d1 $end
$var wire 1 V d0di $end
$var wire 1 W d0h $end
$var wire 1 X d1di $end
$var parameter 1 Y guarded $end
$var parameter 32 Z width $end
$var reg 1 [ data0_reg $end
$var reg 1 \ data1_reg $end
$var reg 1 ] empty_reg $end
$var reg 1 ^ full_reg $end
$scope begin error_checks $end
$var reg 1 _ deqerror $end
$var reg 1 ` enqerror $end
$upscope $end
$upscope $end
$upscope $end
$upscope $end
$enddefinitions $end
$comment Show the parameter values. $end
$dumpall
b1 Z
1Y
b1 Q
1P
b1 J
1I
$end
#0
$dumpvars
x`
x_
1^
0]
0\
0[
0X
1W
0V
0U
xT
xS
0R
xO
xN
1M
0L
0K
0H
xG
xF
0E
0D
0C
1B
0A
0@
1?
0>
0=
1<
0;
0:
09
08
bz 7
bz 6
x5
x4
z3
02
01
x0
x/
z.
0-
0,
x+
0*
0)
1(
z'
z&
bz %
1$
z#
bz "
1!
$end
#1000
0!
#5000
0G
1F
1/
04
1+
00
05
b100 %
b100 7
1.
13
1&
1'
0#
1!
x:
xD
0`
0_
0T
0S
0O
0N
1*
#10000
0*
#15000
1G
0F
1:
1H
1D
1C
1L
1*
#20000
0H
0/
14
0+
10
b101 %
b101 7
0.
03
0&
0*
#25000
0W
1V
04
1;
12
1-
0?
1@
1R
1*
#30000
15
00
b11 "
b11 6
1#
0'
0*
#35000
1W
0V
19
1)
0;
02
0-
1>
1[
1=
1]
1?
0@
0R
0C
0L
1*
#40000
0*
#45000
0)
09
0=
0]
1*
#50000
0G
1F
1/
1+
05
b100 %
b100 7
1.
13
1&
1'
0#
0*
#55000
1G
0F
1H
1C
1L
1*
#60000
0H
0/
14
0+
10
b101 %
b101 7
0.
03
0&
0*
#65000
0W
1V
04
1;
12
1-
0?
1@
1R
1*
#70000
15
00
1#
0'
0*
#75000
1W
0V
19
1)
0;
02
0-
1=
1]
1?
0@
0R
0C
0L
1*
#80000
0*
#85000
0)
09
0=
0]
1*
#90000
0G
1F
1/
1+
05
b100 %
b100 7
1.
13
1&
1'
0#
0*
#95000
1G
0F
1H
1C
1L
1*
#100000
0H
0/
14
0+
10
b101 %
b101 7
0*
#105000
0W
1V
04
1;
12
1-
0?
1@
1R
1A
1*
#110000
15
00
1#
0'
0*
#115000
1W
0V
19
1)
0;
02
0-
1=
1]
1?
0@
0R
0C
0L
1*
#120000
0*
#125000
0)
09
0=
0]
1*
#130000
0G
1F
1/
1+
05
b100 %
b100 7
0.
03
0&
1'
0#
0*
#135000
1G
0F
1H
0D
1C
1L
1*
#140000
0H
0/
14
0+
10
b101 %
b101 7
1.
13
1&
0*
#145000
0W
1V
04
1;
12
1-
0?
1@
1R
1*
#150000
15
00
1#
0'
0*
#155000
1W
0V
19
1)
0;
02
0-
1=
1]
1?
0@
0R
0C
0L
1*
#160000
0*
#165000
0)
09
0=
0]
1*
#170000
0G
1F
1/
1+
05
b100 %
b100 7
1'
0#
0*
#175000
1G
0F
1H
1D
1C
1L
1*
#180000
0H
0/
14
0+
10
b101 %
b101 7
0*
#185000
0W
1V
04
1;
12
1-
0?
1@
1R
1*
#190000
15
00
1#
0'
0*
#195000
1W
0V
19
1)
0;
02
0-
1=
1]
1?
0@
0R
0C
0L
1*
#200000
0*
#205000
0)
09
0=
0]
1*
#210000
0G
1F
1/
1+
05
b100 %
b100 7
0.
03
0&
1'
0#
0*
#215000
1G
0F
1H
0D
1C
1L
1*
#220000
0H
0/
14
0+
10
b101 %
b101 7
1.
13
1&
0*
#225000
0W
1V
04
1;
12
1-
0?
1@
1R
1*
#230000
15
00
1#
0'
0*
#235000
1W
0V
19
1)
0;
02
0-
1=
1]
1?
0@
0R
0C
0L
1*
#240000
0*
#245000
0)
09
0=
0]
1*
#250000
0G
1F
1/
1+
05
b100 %
b100 7
1'
0#
0*
#255000
1G
0F
1H
1D
1C
1L
1*
#260000
0H
0/
14
0+
10
b101 %
b101 7
0.
03
0&
0*
#265000
0W
1V
04
1;
12
1-
0?
1@
1R
0A
1*
#270000
15
00
1#
0'
0*
#275000
1W
0V
19
1)
0;
02
0-
1=
1]
1?
0@
0R
0C
0L
1*
#280000
0*
#285000
0)
09
0=
0]
1*
#290000
0G
1F
1/
1+
05
b100 %
b100 7
1'
0#
0*
#295000
1G
0F
0:
1H
0D
1C
1L
1*
#300000
0H
0/
14
0+
10
b101 %
b101 7
0*
#305000
0W
1V
04
1;
12
1-
0?
1@
1R
1*
#310000
15
00
1#
0'
0*
#315000
1W
0V
19
0;
02
0-
0>
0[
1=
1]
1?
0@
0R
0C
0L
1*
#320000
0*
#325000
09
0=
0]
1*
#330000
0G
1F
1/
1+
05
b100 %
b100 7
1.
13
1&
1'
0#
0*
#335000
1G
0F
1:
1H
1D
1C
1L
1*
#340000
0H
0/
14
0+
10
b101 %
b101 7
0.
03
0&
0*
#345000
0W
1V
04
1;
12
1-
0?
1@
1R
1*
#350000
15
00
1#
0'
0*
#355000
1W
0V
19
1)
0;
02
0-
1>
1[
1=
1]
1?
0@
0R
0C
0L
1*
#360000
0*
#365000
0)
09
0=
0]
1*
#370000
0G
1F
1/
1+
05
b100 %
b100 7
1'
0#
0*
#375000
1G
0F
0:
1H
0D
1C
1L
1*
#380000
0H
0/
14
0+
10
b101 %
b101 7
1.
13
1&
0*
#385000
0W
1V
04
1;
12
1-
1:
0?
1@
1R
1A
1*
#390000
15
00
1#
0'
0*
#395000
1W
0V
19
1)
0;
02
0-
1=
1]
1?
0@
0R
0C
0L
1*
#400000
0*
#405000
0)
09
0=
0]
1*
#410000
0G
1F
1/
1+
05
b100 %
b100 7
1'
0#
0*
#415000
1G
0F
1H
1D
1C
1L
1*
#420000
0H
0/
14
0+
10
b101 %
b101 7
0.
03
0&
0*
#425000
0W
1V
04
1;
12
1-
0?
1@
1R
0A
1*
#430000
15
00
1#
0'
0*
#435000
1W
0V
19
1)
0;
02
0-
1=
1]
1?
0@
0R
0C
0L
1*
#440000
0*
#445000
0)
09
0=
0]
1*
#450000
0G
1F
1/
1+
05
b100 %
b100 7
1'
0#
0*
#455000
1G
0F
0:
1H
0D
1C
1L
1*
#460000
0H
0/
14
0+
10
b101 %
b101 7
0*
#465000
0W
1V
04
1;
12
1-
0?
1@
1R
1*
#470000
15
00
1#
0'
0*
#475000
1W
0V
19
0;
02
0-
0>
0[
1=
1]
1?
0@
0R
0C
0L
1*
#480000
0*
#485000
09
0=
0]
1*
#490000
0G
1F
1/
1+
05
b100 %
b100 7
1'
0#
0*
#495000
1G
0F
1H
1C
1L
1*
#500000
0H
0/
14
0+
10
b101 %
b101 7
1.
13
1&
0*
#505000
0W
1V
04
1;
12
1-
1:
0?
1@
1R
1A
1*
#510000
15
00
1#
0'
0*
#515000
1W
0V
19
1)
0;
02
0-
1>
1[
1=
1]
1?
0@
0R
0C
0L
1*
#520000
0*
#525000
0)
09
0=
0]
1*
#530000
0G
1F
1/
1+
05
b100 %
b100 7
1'
0#
0*
#535000
1G
0F
1H
1D
1C
1L
1*
#540000
0H
0/
14
0+
10
b101 %
b101 7
0.
03
0&
0*
#545000
0W
1V
04
1;
12
1-
0?
1@
1R
0A
1*
#550000
15
00
1#
0'
0*
#555000
1W
0V
19
1)
0;
02
0-
1=
1]
1?
0@
0R
0C
0L
1*
#560000
0*
#565000
0)
09
0=
0]
1*
#570000
0G
1F
1/
1+
05
b100 %
b100 7
1'
0#
0*
#575000
1G
0F
0:
1H
0D
1C
1L
1*
#580000
0H
0/
14
0+
10
b101 %
b101 7
0*
#585000
0W
1V
04
1;
12
1-
0?
1@
1R
1*
#590000
15
00
1#
0'
0*
#595000
1W
0V
19
0;
02
0-
0>
0[
1=
1]
1?
0@
0R
0C
0L
1*
#600000
0*
#605000
09
0=
0]
1*
#610000
0G
1F
1/
1+
05
b100 %
b100 7
1'
0#
0*
#615000
1G
0F
1H
1C
1L
1*
#620000
0H
0/
14
0+
10
b101 %
b101 7
0*
#625000
0W
1V
04
1;
12
1-
0?
1@
1R
1*
#630000
15
00
1#
0'
0*
#635000
1W
0V
19
0;
02
0-
1=
1]
1?
0@
0R
0C
0L
1*
#640000
0*
#645000
09
0=
0]
1*
#650000
0G
1F
1/
1+
05
b100 %
b100 7
1.
13
1&
1'
0#
0*
#655000
1G
0F
1:
1H
1D
1C
1L
1*
#660000
0H
0/
14
0+
10
b101 %
b101 7
0*
#665000
0W
1V
04
1;
12
1-
0?
1@
1R
1A
1*
#670000
15
00
1#
0'
0*
#675000
1W
0V
19
1)
0;
02
0-
1>
1[
1=
1]
1?
0@
0R
0C
0L
1*
#680000
0*
#685000
0)
09
0=
0]
1*
#690000
0G
1F
1/
1+
05
b100 %
b100 7
1'
0#
0*
#695000
1G
0F
1H
1C
1L
1*
#700000
0H
0/
14
0+
10
b101 %
b101 7
0.
03
0&
0*
#705000
0W
1V
04
1;
12
1-
0?
1@
1R
0A
1*
#710000
15
00
1#
0'
0*
#715000
1W
0V
19
1)
0;
02
0-
1=
1]
1?
0@
0R
0C
0L
1*
#720000
0*
#725000
0)
09
0=
0]
1*
#730000
0G
1F
1/
1+
05
b100 %
b100 7
1.
13
1&
1'
0#
0*
#735000
1G
0F
1H
1C
1L
1*
#740000
0H
0/
14
0+
10
b101 %
b101 7
0*
#745000
0W
1V
04
1;
12
1-
0?
1@
1R
1A
1*
#750000
15
00
1#
0'
0*
#755000
1W
0V
19
1)
0;
02
0-
1=
1]
1?
0@
0R
0C
0L
1*
#760000
0*
#765000
0)
09
0=
0]
1*
#770000
0G
1F
1/
1+
05
b100 %
b100 7
1'
0#
0*
#775000
1G
0F
1H
1C
1L
1*
#780000
0H
0/
14
0+
10
b101 %
b101 7
0.
03
0&
0*
#785000
0W
1V
04
1;
12
1-
0?
1@
1R
0A
1*
#790000
15
00
1#
0'
0*
#795000
1W
0V
19
1)
0;
02
0-
1=
1]
1?
0@
0R
0C
0L
1*
#800000
0*
#805000
0)
09
0=
0]
1*
#810000
0G
1F
1/
1+
05
b100 %
b100 7
1'
0#
0*
#815000
1G
0F
0:
1H
0D
1C
1L
1*
#820000
0H
0/
14
0+
10
b101 %
b101 7
0*
#825000
0W
1V
04
1;
12
1-
0?
1@
1R
1*
#830000
15
00
1#
0'
0*
#835000
1W
0V
19
0;
02
0-
0>
0[
1=
1]
1?
0@
0R
0C
0L
1*
#840000
0*
#845000
09
0=
0]
1*
#850000
0G
1F
1/
1+
05
b100 %
b100 7
1'
0#
0*
#855000
1G
0F
1H
1C
1L
1*
#860000
0H
0/
14
0+
10
b101 %
b101 7
0*
#865000
0W
1V
04
1;
12
1-
0?
1@
1R
1*
#870000
15
00
1#
0'
0*
#875000
1W
0V
19
0;
02
0-
1=
1]
1?
0@
0R
0C
0L
1*
#880000
0*
#885000
09
0=
0]
1*
#890000
0G
1F
1/
1+
05
b100 %
b100 7
1.
13
1&
1'
0#
0*
#895000
1G
0F
1:
1H
1D
1C
1L
1*
#900000
0H
0/
14
0+
10
b101 %
b101 7
0.
03
0&
0*
#905000
0W
1V
04
1;
12
1-
0?
1@
1R
1*
#910000
15
00
1#
0'
0*
#915000
1W
0V
19
1)
0;
02
0-
1>
1[
1=
1]
1?
0@
0R
0C
0L
1*
#920000
0*
#925000
0)
09
0=
0]
1*
#930000
0G
1F
1/
1+
05
b100 %
b100 7
1'
0#
0*
#935000
1G
0F
0:
1H
0D
1C
1L
1*
#940000
0H
0/
14
0+
10
b101 %
b101 7
1.
13
1&
0*
#945000
0W
1V
04
1;
12
1-
1:
0?
1@
1R
1A
1*
#950000
15
00
1#
0'
0*
#955000
1W
0V
19
1)
0;
02
0-
1=
1]
1?
0@
0R
0C
0L
1*
#960000
0*
#965000
0)
09
0=
0]
1*
#970000
0G
1F
1/
1+
05
b100 %
b100 7
1'
0#
0*
#975000
1G
0F
1H
1D
1C
1L
1*
#980000
0H
0/
14
0+
10
b101 %
b101 7
0*
#985000
0W
1V
04
1;
12
1-
0?
1@
1R
1*
#990000
15
00
1#
0'
0*
#995000
1W
0V
19
1)
0;
02
0-
1=
1]
1?
0@
0R
0C
0L
1*
#1000000
0*
#1005000
0)
09
0=
0]
1*
#1010000
0G
1F
1/
1+
05
b100 %
b100 7
0.
03
0&
1'
0#
0*
#1015000
1G
0F
1H
0D
1C
1L
1*
#1020000
0H
0/
14
0+
10
b101 %
b101 7
0*
#1025000
0W
1V
04
1;
12
1-
0:
0?
1@
1R
0A
1*
#1030000
15
00
1#
0'
0*
#1035000
1W
0V
19
0;
02
0-
0>
0[
1=
1]
1?
0@
0R
0C
0L
1*
#1040000
0*
#1045000
09
0=
0]
1*
#1050000
0G
1F
1/
1+
05
b100 %
b100 7
1.
13
1&
1'
0#
0*
#1055000
1G
0F
1:
1H
1D
1C
1L
1*
#1060000
0H
0/
14
0+
10
b101 %
b101 7
0.
03
0&
0*
#1065000
0W
1V
04
1;
12
1-
0?
1@
1R
1*
#1070000
15
00
1#
0'
0*
#1075000
1W
0V
19
1)
0;
02
0-
1>
1[
1=
1]
1?
0@
0R
0C
0L
1*
#1080000
0*
#1085000
0)
09
0=
0]
1*
#1090000
0G
1F
1/
1+
05
b100 %
b100 7
1'
0#
0*
#1095000
1G
0F
0:
1H
0D
1C
1L
1*
#1100000
0H
0/
14
0+
10
b101 %
b101 7
1.
13
1&
0*
#1105000
0W
1V
04
1;
12
1-
1:
0?
1@
1R
1A
1*
#1110000
15
00
1#
0'
0*
#1115000
1W
0V
19
1)
0;
02
0-
1=
1]
1?
0@
0R
0C
0L
1*
#1120000
0*
#1125000
0)
09
0=
0]
1*
#1130000
0G
1F
1/
1+
05
b100 %
b100 7
0.
03
0&
1'
0#
0*
#1135000
1G
0F
1H
1C
1L
1*
#1140000
0H
0/
14
0+
10
b101 %
b101 7
1.
13
1&
0*
#1145000
0W
1V
04
1;
12
1-
0?
1@
1R
1*
#1150000
15
00
1#
0'
0*
#1155000
1W
0V
19
1)
0;
02
0-
1=
1]
1?
0@
0R
0C
0L
1*
#1160000
0*
#1165000
0)
09
0=
0]
1*
#1170000
0G
1F
1/
1+
05
b100 %
b100 7
0.
03
0&
1'
0#
0*
#1175000
1G
0F
1H
1C
1L
1*
#1180000
0H
0/
14
0+
10
b101 %
b101 7
1.
13
1&
0*
#1185000
0W
1V
04
1;
12
1-
0?
1@
1R
1*
#1190000
15
00
1#
0'
0*
#1195000
1W
0V
19
1)
0;
02
0-
1=
1]
1?
0@
0R
0C
0L
1*
#1200000
0*
#1205000
0)
09
0=
0]
1*
#1210000
0G
1F
1/
1+
05
b100 %
b100 7
1'
0#
0*
#1215000
1G
0F
1H
1D
1C
1L
1*
#1220000
0H
0/
14
0+
10
b101 %
b101 7
0*
#1225000
0W
1V
04
1;
12
1-
0?
1@
1R
1*
#1230000
15
00
1#
0'
0*
#1235000
1W
0V
19
1)
0;
02
0-
1=
1]
1?
0@
0R
0C
0L
1*
#1240000
0*
#1245000
0)
09
0=
0]
1*
#1250000
0G
1F
1/
1+
05
b100 %
b100 7
1'
0#
0*
#1255000
1G
0F
1H
1C
1L
1*
#1260000
0H
0/
14
0+
10
b101 %
b101 7
0*
#1265000
0W
1V
04
1;
12
1-
0?
1@
1R
1*
#1270000
15
00
1#
0'
0*
#1275000
1W
0V
19
1)
0;
02
0-
1=
1]
1?
0@
0R
0C
0L
1*
#1280000
0*
#1285000
0)
09
0=
0]
1*
#1290000
0G
1F
1/
1+
05
b100 %
b100 7
1'
0#
0*
#1295000
1G
0F
1H
1C
1L
1*
#1300000
0H
0/
14
0+
10
b101 %
b101 7
0*
#1305000
0W
1V
04
1;
12
1-
0?
1@
1R
1*
#1310000
15
00
1#
0'
0*
#1315000
1W
0V
19
1)
0;
02
0-
1=
1]
1?
0@
0R
0C
0L
1*
#1320000
0*
#1325000
0)
09
0=
0]
1*
#1330000
0G
1F
1/
1+
05
b100 %
b100 7
1'
0#
0*
#1335000
1G
0F
1H
1C
1L
1*
#1340000
0H
0/
14
0+
10
b101 %
b101 7
0.
03
0&
0*
#1345000
0W
1V
04
1;
12
1-
0?
1@
1R
0A
1*
#1350000
15
00
1#
0'
0*
#1355000
1W
0V
19
1)
0;
02
0-
1=
1]
1?
0@
0R
0C
0L
1*
#1360000
0*
#1365000
0)
09
0=
0]
1*
#1370000
0G
1F
1/
1+
05
b100 %
b100 7
1.
13
1&
1'
0#
0*
#1375000
1G
0F
1H
1C
1L
1*
#1380000
0H
0/
14
0+
10
b101 %
b101 7
0*
#1385000
0W
1V
04
1;
12
1-
0?
1@
1R
1A
1*
#1390000
15
00
1#
0'
0*
#1395000
1W
0V
19
1)
0;
02
0-
1=
1]
1?
0@
0R
0C
0L
1*
#1400000
0*
#1405000
0)
09
0=
0]
1*
#1410000
0G
1F
1/
1+
05
b100 %
b100 7
0.
03
0&
1'
0#
0*
#1415000
1G
0F
1H
0D
1C
1L
1*
#1420000
0H
0/
14
0+
10
b101 %
b101 7
1.
13
1&
0*
#1425000
0W
1V
04
1;
12
1-
0?
1@
1R
1*
#1430000
15
00
1#
0'
0*
#1435000
1W
0V
19
1)
0;
02
0-
1=
1]
1?
0@
0R
0C
0L
1*
#1440000
0*
#1445000
0)
09
0=
0]
1*
#1450000
0G
1F
1/
1+
05
b100 %
b100 7
0.
03
0&
1'
0#
0*
#1455000
1G
0F
1H
1C
1L
1*
#1460000
0H
0/
14
0+
10
b101 %
b101 7
1.
13
1&
0*
#1465000
0W
1V
04
1;
12
1-
0?
1@
1R
1*
#1470000
15
00
1#
0'
0*
#1475000
1W
0V
19
1)
0;
02
0-
1=
1]
1?
0@
0R
0C
0L
1*
#1480000
0*
#1485000
0)
09
0=
0]
1*
#1490000
0G
1F
1/
1+
05
b100 %
b100 7
0.
03
0&
1'
0#
0*
#1495000
1G
0F
1H
1C
1L
1*
#1500000
0H
0/
14
0+
10
b101 %
b101 7
1.
13
1&
0*
#1505000
0W
1V
04
1;
12
1-
0?
1@
1R
1*
#1510000
15
00
1#
0'
0*
#1515000
1W
0V
19
1)
0;
02
0-
1=
1]
1?
0@
0R
0C
0L
1*
#1520000
0*
#1525000
0)
09
0=
0]
1*
#1530000
0G
1F
1/
1+
05
b100 %
b100 7
1'
0#
0*
#1535000
1G
0F
1H
1D
1C
1L
1*
#1540000
0H
0/
14
0+
10
b101 %
b101 7
0.
03
0&
0*
#1545000
0W
1V
04
1;
12
1-
0?
1@
1R
0A
1*
#1550000
15
00
1#
0'
0*
#1555000
1W
0V
19
1)
0;
02
0-
1=
1]
1?
0@
0R
0C
0L
1*
#1560000
0*
#1565000
0)
09
0=
0]
1*
#1570000
0G
1F
1/
1+
05
b100 %
b100 7
1'
0#
0*
#1575000
1G
0F
0:
1H
0D
1C
1L
1*
#1580000
0H
0/
14
0+
10
b101 %
b101 7
1.
13
1&
0*
#1585000
0W
1V
04
1;
12
1-
1:
0?
1@
1R
1A
1*
#1590000
15
00
1#
0'
0*
#1595000
1W
0V
19
1)
0;
02
0-
1=
1]
1?
0@
0R
0C
0L
1*
#1600000
0*
#1605000
0)
09
0=
0]
1*
#1610000
0G
1F
1/
1+
05
b100 %
b100 7
1'
0#
0*
#1615000
1G
0F
1H
1D
1C
1L
1*
#1620000
0H
0/
14
0+
10
b101 %
b101 7
0.
03
0&
0*
#1625000
0W
1V
04
1;
12
1-
0?
1@
1R
0A
1*
#1630000
15
00
1#
0'
0*
#1635000
1W
0V
19
1)
0;
02
0-
1=
1]
1?
0@
0R
0C
0L
1*
#1640000
0*
#1645000
0)
09
0=
0]
1*
#1650000
0G
1F
1/
1+
05
b100 %
b100 7
1.
13
1&
1'
0#
0*
#1655000
1G
0F
1H
1C
1L
1*
#1660000
0H
0/
14
0+
10
b101 %
b101 7
0.
03
0&
0*
#1665000
0W
1V
04
1;
12
1-
0?
1@
1R
1*
#1670000
15
00
1#
0'
0*
#1675000
1W
0V
19
1)
0;
02
0-
1=
1]
1?
0@
0R
0C
0L
1*
#1680000
0*
#1685000
0)
09
0=
0]
1*
#1690000
0G
1F
1/
1+
05
b100 %
b100 7
1.
13
1&
1'
0#
0*
#1695000
1G
0F
1H
1C
1L
1*
#1700000
0H
0/
14
0+
10
b101 %
b101 7
0.
03
0&
0*
#1705000
0W
1V
04
1;
12
1-
0?
1@
1R
1*
#1710000
15
00
1#
0'
0*
#1715000
1W
0V
19
1)
0;
02
0-
1=
1]
1?
0@
0R
0C
0L
1*
#1720000
0*
#1725000
0)
09
0=
0]
1*
#1730000
0G
1F
1/
1+
05
b100 %
b100 7
1.
13
1&
1'
0#
0*
#1735000
1G
0F
1H
1C
1L
1*
#1740000
0H
0/
14
0+
10
b101 %
b101 7
0*
#1745000
0W
1V
04
1;
12
1-
0?
1@
1R
1A
1*
#1750000
15
00
1#
0'
0*
#1755000
1W
0V
19
1)
0;
02
0-
1=
1]
1?
0@
0R
0C
0L
1*
#1760000
0*
#1765000
0)
09
0=
0]
1*
#1770000
0G
1F
1/
1+
05
b100 %
b100 7
0.
03
0&
1'
0#
0*
#1775000
1G
0F
1H
0D
1C
1L
1*
#1780000
0H
0/
14
0+
10
b101 %
b101 7
1.
13
1&
0*
#1785000
0W
1V
04
1;
12
1-
0?
1@
1R
1*
#1790000
15
00
1#
0'
0*
#1795000
1W
0V
19
1)
0;
02
0-
1=
1]
1?
0@
0R
0C
0L
1*
#1800000
0*
#1805000
0)
09
0=
0]
1*
#1810000
0G
1F
1/
1+
05
b100 %
b100 7
1'
0#
0*
#1815000
1G
0F
1H
1D
1C
1L
1*
#1820000
0H
0/
14
0+
10
b101 %
b101 7
0.
03
0&
0*
#1825000
0W
1V
04
1;
12
1-
0?
1@
1R
0A
1*
#1830000
15
00
1#
0'
0*
#1835000
1W
0V
19
1)
0;
02
0-
1=
1]
1?
0@
0R
0C
0L
1*
#1840000
0*
#1845000
0)
09
0=
0]
1*
#1850000
0G
1F
1/
1+
05
b100 %
b100 7
1'
0#
0*
#1855000
1G
0F
0:
1H
0D
1C
1L
1*
#1860000
0H
0/
14
0+
10
b101 %
b101 7
0*
#1865000
0W
1V
04
1;
12
1-
0?
1@
1R
1*
#1870000
15
00
1#
0'
0*
#1875000
1W
0V
19
0;
02
0-
0>
0[
1=
1]
1?
0@
0R
0C
0L
1*
#1880000
0*
#1885000
09
0=
0]
1*
#1890000
0G
1F
1/
1+
05
b100 %
b100 7
1'
0#
0*
#1895000
1G
0F
1H
1C
1L
1*
#1900000
0H
0/
14
0+
10
b101 %
b101 7
1.
13
1&
0*
#1905000
0W
1V
04
1;
12
1-
1:
0?
1@
1R
1A
1*
#1910000
15
00
1#
0'
0*
#1915000
1W
0V
19
1)
0;
02
0-
1>
1[
1=
1]
1?
0@
0R
0C
0L
1*
#1920000
0*
#1925000
0)
09
0=
0]
1*
#1930000
0G
1F
1/
1+
05
b100 %
b100 7
1'
0#
0*
#1935000
1G
0F
1H
1D
1C
1L
1*
#1940000
0H
0/
14
0+
10
b101 %
b101 7
0*
#1945000
0W
1V
04
1;
12
1-
0?
1@
1R
1*
#1950000
15
00
1#
0'
0*
#1955000
1W
0V
19
1)
0;
02
0-
1=
1]
1?
0@
0R
0C
0L
1*
#1960000
0*
#1965000
0)
09
0=
0]
1*
#1970000
0G
1F
1/
1+
05
b100 %
b100 7
0.
03
0&
1'
0#
0*
#1975000
1G
0F
1H
0D
1C
1L
1*
#1980000
0H
0/
14
0+
10
b101 %
b101 7
1.
13
1&
0*
#1985000
0W
1V
04
1;
12
1-
0?
1@
1R
1*
#1990000
15
00
1#
0'
0*
#1995000
1W
0V
19
1)
0;
02
0-
1=
1]
1?
0@
0R
0C
0L
1*
#2000000
0*
#2005000
0)
09
0=
0]
1*
#2010000
0G
1F
1/
1+
05
b100 %
b100 7
1'
0#
0*
#2015000
1G
0F
1H
1D
1C
1L
1*
#2020000
0H
0/
14
0+
10
b101 %
b101 7
0*
#2025000
0W
1V
04
1;
12
1-
0?
1@
1R
1*
#2030000
15
00
1#
0'
0*
#2035000
1W
0V
19
1)
0;
02
0-
1=
1]
1?
0@
0R
0C
0L
1*
#2040000
0*
#2045000
0)
09
0=
0]
1*
#2050000
0G
1F
1/
1+
05
b100 %
b100 7
0.
03
0&
1'
0#
0*
#2055000
1G
0F
1H
0D
1C
1L
1*
#2060000
0H
0/
14
0+
10
b101 %
b101 7
0*
#2065000
0W
1V
04
1;
12
1-
0:
0?
1@
1R
0A
1*
#2070000
15
00
1#
0'
0*
#2075000
1W
0V
19
0;
02
0-
0>
0[
1=
1]
1?
0@
0R
0C
0L
1*
#2080000
0*
#2085000
09
0=
0]
1*
#2090000
0G
1F
1/
1+
05
b100 %
b100 7
1.
13
1&
1'
0#
0*
#2095000
1G
0F
1:
1H
1D
1C
1L
1*
#2100000
0H
0/
14
0+
10
b101 %
b101 7
0.
03
0&
0*
#2105000
0W
1V
04
1;
12
1-
0?
1@
1R
1*
#2110000
15
00
1#
0'
0*
#2115000
1W
0V
19
1)
0;
02
0-
1>
1[
1=
1]
1?
0@
0R
0C
0L
1*
#2120000
0*
#2125000
0)
09
0=
0]
1*
#2130000
0G
1F
1/
1+
05
b100 %
b100 7
1'
0#
0*
#2135000
1G
0F
0:
1H
0D
1C
1L
1*
#2140000
0H
0/
14
0+
10
b101 %
b101 7
1.
13
1&
0*
#2145000
0W
1V
04
1;
12
1-
1:
0?
1@
1R
1A
1*
#2150000
15
00
1#
0'
0*
#2155000
1W
0V
19
1)
0;
02
0-
1=
1]
1?
0@
0R
0C
0L
1*
#2160000
0*
#2165000
0)
09
0=
0]
1*
#2170000
0G
1F
1/
1+
05
b100 %
b100 7
1'
0#
0*
#2175000
1G
0F
1H
1D
1C
1L
1*
#2180000
0H
0/
14
0+
10
b101 %
b101 7
0*
#2185000
0W
1V
04
1;
12
1-
0?
1@
1R
1*
#2190000
15
00
1#
0'
0*
#2195000
1W
0V
19
1)
0;
02
0-
1=
1]
1?
0@
0R
0C
0L
1*
#2200000
0*
#2205000
0)
09
0=
0]
1*
#2210000
0G
1F
1/
1+
05
b100 %
b100 7
1'
0#
0*
#2215000
1G
0F
1H
1C
1L
1*
#2220000
0H
0/
14
0+
10
b101 %
b101 7
0*
#2225000
0W
1V
04
1;
12
1-
0?
1@
1R
1*
#2230000
15
00
1#
0'
0*
#2235000
1W
0V
19
1)
0;
02
0-
1=
1]
1?
0@
0R
0C
0L
1*
#2240000
0*
#2245000
0)
09
0=
0]
1*
